…
Then we calculate the average net approval rate (approve- disapprove) for each week since he got into office (Jan 20th 2021), and get the mean, standard deviation, and 95% confidence interval of the weekly net approval.

approval_polllist_avg_approval <- approval_polllist %>%
    mutate(net_approval = approve - disapprove) %>%
    mutate(end_week = week(enddate)) %>%
    group_by(end_week) %>%
    summarise(average_net_approval = mean(net_approval), sd_net_approval = sd(net_approval),
        count = n(), se_net_approval = sd_net_approval/sqrt(count), upper_bound = average_net_approval +
            se_net_approval * qt(0.975, count - 1), lower_bound = average_net_approval -
            se_net_approval * qt(0.975, count - 1))

approval_polllist_avg_approval

## # A tibble: 40 x 7
##    end_week average_net_approval sd_net_approval count se_net_approval upper_bound
##       <dbl>                <dbl>           <dbl> <int>           <dbl>       <dbl>
##  1        3                 18.6            8.23    11            2.48        24.2
##  2        4                 18.5            8.94    51            1.25        21.0
##  3        5                 16.7            7.59    54            1.03        18.8
##  4        6                 16.6            8.16    37            1.34        19.3
##  5        7                 16.3            7.34    50            1.04        18.4
##  6        8                 15.0            7.77    50            1.10        17.2
##  7        9                 13.4            7.46    53            1.02        15.4
##  8       10                 12.9            7.08    49            1.01        15.0
##  9       11                 15.8            7.45    43            1.14        18.1
## 10       12                 14.7            9.32    57            1.23        17.2
## # ... with 30 more rows, and 1 more variable: lower_bound <dbl>
…
