…
# 1. Select
weather <- weather %>% 
  select(Year, Jan, Feb, Mar, Apr, May, Jun, Jul, Aug, Sep, Oct, Nov, Dec )

# 2. Long Format
tidyweather <- weather %>% 
  pivot_longer(cols=2:13, 
               names_to="Month", 
               values_to = "Delta")

tidyweather

## # A tibble: 1,704 x 3
##     Year Month Delta
##    <dbl> <chr> <dbl>
##  1  1880 Jan   -0.35
##  2  1880 Feb   -0.51
##  3  1880 Mar   -0.23
##  4  1880 Apr   -0.3 
##  5  1880 May   -0.06
##  6  1880 Jun   -0.16
##  7  1880 Jul   -0.18
##  8  1880 Aug   -0.26
##  9  1880 Sep   -0.23
## 10  1880 Oct   -0.32
## # ... with 1,694 more rows
…
approval_polllist_avg_approval <- approval_polllist %>%
  mutate(net_approval = approve-disapprove) %>%
  mutate(end_week = week(enddate)) %>%
  group_by(end_week)%>%
  summarise(average_net_approval = mean(net_approval),
            sd_net_approval = sd(net_approval),
            count=n(),
            se_net_approval = sd_net_approval/sqrt(count),
            upper_bound = average_net_approval+se_net_approval*qt(0.975, count-1),
            lower_bound = average_net_approval-se_net_approval*qt(0.975, count-1))

approval_polllist_avg_approval

## # A tibble: 39 x 7
##    end_week average_net_approval sd_net_approval count se_net_approval upper_bound
##       <dbl>                <dbl>           <dbl> <int>           <dbl>       <dbl>
##  1        3                 18.6            8.23    11            2.48        24.2
##  2        4                 18.5            8.94    51            1.25        21.0
##  3        5                 16.7            7.59    54            1.03        18.8
##  4        6                 16.6            8.16    37            1.34        19.3
##  5        7                 16.3            7.34    50            1.04        18.4
##  6        8                 15.0            7.77    50            1.10        17.2
##  7        9                 13.4            7.46    53            1.02        15.4
##  8       10                 12.9            7.08    49            1.01        15.0
##  9       11                 15.8            7.45    43            1.14        18.1
## 10       12                 14.7            9.32    57            1.23        17.2
## # ... with 29 more rows, and 1 more variable: lower_bound <dbl>
…
cpi_changes_graph %>%
  filter(Date>="2016-01-01") %>% 
  group_by(Component) %>% 
  mutate(
    max_cpi = max(YoY)
  )

## # A tibble: 3,381 x 5
## # Groups:   Component [49]
##    Date       Component           YoY Neg   max_cpi
##    <date>     <chr>             <dbl> <lgl>   <dbl>
##  1 2016-01-01 CUSR0000SETG01 -0.0192  TRUE   0.246 
##  2 2016-01-01 CUSR0000SEFW    0.0102  FALSE  0.0289
##  3 2016-01-01 CUSR0000SEFX    0.0156  FALSE  0.0336
##  4 2016-01-01 CUSR0000SAF116  0.0120  FALSE  0.0298
##  5 2016-01-01 CPIAUCSL        0.0124  FALSE  0.0538
##  6 2016-01-01 CPIAPPSL       -0.00896 TRUE   0.0557
##  7 2016-01-01 CUSR0000SAF111  0.00355 FALSE  0.0329
##  8 2016-01-01 CUSR0000SEFP01 -0.0262  TRUE   0.0395
##  9 2016-01-01 CUSR0000SEFJ   -0.0297  TRUE   0.0568
## 10 2016-01-01 CUSR0000SEHF01 -0.0231  TRUE   0.0524
## # ... with 3,371 more rows
…
